{
    "jobcategories": [{
        "description": "Accounting/Finance",
        "value": "accounting_finance",
        "subcategory": [{
            "description": " Audit & Taxation Jobs"
        }, {
            "description": " Banking/Financial Jobs"
        }, {
            "description": " Corporate Finance/Investment Jobs"
        }, {
            "description": " General/Cost Accounting Jobs"
        }]
    }, {
        "description": "Admin/Human Resources",
        "value": "admin_human_resource",
        "subcategory": [{
            "description": " Clerical/Administrative Jobs"
        }, {
            "description": " Human Resources Jobs"
        }, {
            "description": " Secretarial Jobs"
        }, {
            "description": " Top Management Jobs"
        }]
    }, {
        "description": "Arts/Media/Communications",
        "value": "art_media_communications",
        "subcategory": [{
            "description": " Advertising Jobs"
        }, {
            "description": " Arts/Creative Design Jobs"
        }, {
            "description": " Entertainment Jobs"
        }, {
            "description": " Public Relations Jobs"
        }]
    }, {
        "description": "Building/Construction",
        "value": "building_construction",
        "subcategory": [{
            "description": " Architect/Interior Design Jobs"
        }, {
            "description": " Civil Engineering/Construction Jobs"
        }, {
            "description": " Property/Real Estate Jobs"
        }, {
            "description": " Quantity Surveying Jobs"
        }]
    }, {
        "description": "Computer/Information Technology",
        "value": "computer_information_technology",
        "subcategory": [{
            "description": " IT - Hardware Jobs"
        }, {
            "description": " IT - Network/Sys/DB Admin Jobs"
        }, {
            "description": " IT - Software Jobs"
        }]
    }, {
        "description": "Education/Training",
        "value": "education_training",
        "subcategory": [{
            "description": " Education Jobs"
        }, {
            "description": " Training & Dev. Jobs"
        }]
    }, {
        "description": "Engineering",
        "value": "engineering",
        "subcategory": [{
            "description": " Chemical Engineering Jobs"
        }, {
            "description": " Electrical Engineering Jobs"
        }, {
            "description": " Electronics Engineering Jobs"
        }, {
            "description": " Environmental Engineering Jobs"
        }, {
            "description": " Industrial Engineering Jobs"
        }, {
            "description": " Mechanical/Automotive Engineering Jobs"
        }, {
            "description": " Oil/Gas Engineering Jobs"
        }, {
            "description": " Other Engineering Jobs"
        }]
    }, {
        "description": "Healthcare",
        "value": "healthcare",
        "subcategory": [{
            "description": " Doctor/Diagnosis Jobs"
        }, {
            "description": " Pharmacy Jobs"
        }, {
            "description": " Nurse/Medical Support Jobs"
        }]
    }, {
        "description": "Hotel/Restaurant",
        "value": "hotel_restaurant",
        "subcategory": [{
            "description": " Food/Beverage/Restaurant Jobs"
        }, {
            "description": " Hotel/Tourism Jobs"
        }]
    }, {
        "description": "Manufacturing",
        "value": "manufacturing",
        "subcategory": [{
            "description": " Maintenance Jobs"
        }, {
            "description": " Manufacturing Jobs"
        }, {
            "description": " Process Design & Control Jobs"
        }, {
            "description": " Purchasing/Material Mgmt Jobs"
        }, {
            "description": " Quality Assurance Jobs"
        }]
    }, {
        "description": "Sales/Marketing",
        "value": "sales_marketing",
        "subcategory": [{
            "description": " Sales - Corporate Jobs"
        }, {
            "description": " Marketing/Business Dev Jobs"
        }, {
            "description": " Merchandising Jobs"
        }, {
            "description": " Retail Sales Jobs"
        }, {
            "description": " Sales - Eng/Tech/IT Jobs)"
        }, {
            "description": " Sales - Financial Services Jobs"
        }, {
            "description": " Telesales/Telemarketing Jobs"
        }]
    }, {
        "description": "Sciences",
        "value": "sciences",
        "subcategory": [{
            "description": " Actuarial/Statistics Jobs"
        }, {
            "description": " Agriculture Jobs"
        }, {
            "description": " Aviation Jobs"
        }, {
            "description": " Biotechnology Jobs"
        }, {
            "description": " Chemistry Jobs"
        }, {
            "description": " Food Tech/Nutritionist Jobs"
        }, {
            "description": " Geology/Geophysics Jobs"
        }, {
            "description": " Science & Technology Jobs"
        }]
    }, {
        "description": "Services",
        "value": "services",
        "subcategory": [{
            "description": " Security/Armed Forces Jobs"
        }, {
            "description": " Customer Service Jobs"
        }, {
            "description": " Logistics/Supply Chain Jobs"
        }, {
            "description": " Law/Legal Services Jobs"
        }, {
            "description": " Personal Care Jobs"
        }, {
            "description": " Social Services Jobs "
        }, {
            "description": " Tech & Helpdesk Support Jobs"
        }]
    }, {
        "description": "Others",
        "value": "others",
        "subcategory": [{
            "description": " General Work Jobs "
        }, {
            "description": " Journalist/Editors Jobs"
        }, {
            "description": " Publishing Jobs"
        }, {
            "description": " Others Jobs"
        }]
    }]
}
